<svg width="655" height="737" viewBox="0 0 655 737" fill="none" xmlns="http://www.w3.org/2000/svg">
    <g opacity="0.1" filter="url(#filter0_f)">
        <circle cx="461.5" cy="275.5" r="313.5" fill="url(#paint0_linear)"/>
        <circle cx="461.5" cy="275.5" r="321.5" stroke="white" stroke-width="16"/>
    </g>
    <defs>
        <filter id="filter0_f" x="0" y="-186" width="923" height="923" filterUnits="userSpaceOnUse" color-interpolation-filters="sRGB">
            <feFlood flood-opacity="0" result="BackgroundImageFix"/>
            <feBlend mode="normal" in="SourceGraphic" in2="BackgroundImageFix" result="shape"/>
            <feGaussianBlur stdDeviation="66" result="effect1_foregroundBlur"/>
        </filter>
        <linearGradient id="paint0_linear" x1="461.5" y1="-38" x2="461.5" y2="589" gradientUnits="userSpaceOnUse">
            <stop stop-color="#F57C00"/>
            <stop offset="1" stop-color="#F57C00" stop-opacity="0"/>
        </linearGradient>
    </defs>
</svg>
